apb_qemu1/sim/apb.vcd
$date
	Tue Sep 15 16:43:08 2020
$end
$version
	Icarus Verilog
$end
$timescale
	100ps
$end
$scope module tb_top $end
$var wire 32 ! prdata [31:0] $end
$var reg 8 " _op [7:0] $end
$var reg 8 # _paddr [7:0] $end
$var reg 8 $ _pdata [7:0] $end
$var reg 1 % clk $end
$var reg 8 & paddr [7:0] $end
$var reg 1 ' penable $end
$var reg 1 ( psel $end
$var reg 32 ) pwdata [31:0] $end
$var reg 1 * pwrite $end
$var reg 1 + rst_n $end
$scope module u_apb_slave $end
$var wire 1 % clk $end
$var wire 8 , paddr [7:0] $end
$var wire 1 ' penable $end
$var wire 1 ( psel $end
$var wire 32 - pwdata [31:0] $end
$var wire 1 * pwrite $end
$var wire 1 + rst_n $end
$var reg 2 . apb_st [1:0] $end
$var reg 32 / prdata [31:0] $end
$upscope $end
$scope begin bfm_apb $end
$scope begin idle_transation $end
$upscope $end
$scope begin valid_transation $end
$upscope $end
$upscope $end
$scope task read_apb $end
$var reg 8 0 addr [7:0] $end
$upscope $end
$scope task write_apb $end
$var reg 8 1 addr [7:0] $end
$var reg 8 2 data [7:0] $end
$upscope $end
$upscope $end
$enddefinitions $end
#0
$dumpvars
bx 2
bx 1
bx 0
b0 /
b0 .
bx -
bx ,
0+
x*
bx )
0(
0'
bx &
0%
bx $
bx #
bx "
b0 !
$end
#50
1%
#100
0%
#150
1%
#200
0%
#250
1%
#300
0%
#350
1%
#400
0%
#450
1%
#500
0%
1+
#550
1%
#600
0%
#650
1%
#700
0%
#750
1%
#800
0%
#850
1%
#900
0%
#950
1%
#1000
b1010000 2
b101100 1
b0 "
b1010000 $
b101100 #
0%
#1050
1%
#1100
b1010000 )
b1010000 -
1*
1(
b101100 &
b101100 ,
0%
#1150
b1 .
1%
#1200
1'
0%
#1250
b0 .
1%
#1300
0'
0(
0%
#1350
1%
#1400
b0 0
b11 "
b0 $
b0 #
0%
#1450
1%
#1500
0*
1(
b0 &
b0 ,
0%
#1550
b10 .
1%
#1600
1'
0%
#1650
b0 .
bx !
bx /
1%
#1700
0'
0(
bx $
0%
#1750
b0 !
b0 /
1%
