apb_qemu1/sim/apb.vcd
$date
	Thu Sep 10 16:43:05 2020
$end
$version
	Icarus Verilog
$end
$timescale
	100ps
$end
$scope module tb_top $end
$var wire 32 ! prdata [31:0] $end
$var reg 8 " _op [7:0] $end
$var reg 8 # _paddr [7:0] $end
$var reg 8 $ _pdata [7:0] $end
$var reg 1 % clk $end
$var reg 8 & paddr [7:0] $end
$var reg 1 ' penable $end
$var reg 1 ( psel $end
$var reg 32 ) pwdata [31:0] $end
$var reg 1 * pwrite $end
$var reg 1 + rst_n $end
$scope module u_apb_slave $end
$var wire 1 % clk $end
$var wire 8 , paddr [7:0] $end
$var wire 1 ' penable $end
$var wire 1 ( psel $end
$var wire 32 - pwdata [31:0] $end
$var wire 1 * pwrite $end
$var wire 1 + rst_n $end
$var reg 2 . apb_st [1:0] $end
$var reg 32 / prdata [31:0] $end
$upscope $end
$scope begin bfm_apb $end
$scope begin idle_transation $end
$upscope $end
$scope begin valid_transation $end
$upscope $end
$upscope $end
$scope task read_apb $end
$var reg 8 0 addr [7:0] $end
$upscope $end
$scope task write_apb $end
$var reg 8 1 addr [7:0] $end
$var reg 8 2 data [7:0] $end
$upscope $end
$upscope $end
$enddefinitions $end
#0
$dumpvars
bx 2
bx 1
bx 0
b0 /
b0 .
bx -
bx ,
0+
x*
bx )
0(
0'
bx &
0%
bx $
bx #
bx "
b0 !
$end
#50
1%
#100
0%
#150
1%
#200
0%
#250
1%
#300
0%
#350
1%
#400
0%
#450
1%
#500
0%
1+
#550
1%
#600
0%
#650
1%
#700
0%
#750
1%
#800
0%
#850
1%
#900
0%
#950
1%
#1000
b0 2
b101100 1
b0 "
b0 $
b101100 #
0%
#1050
1%
#1100
b0 )
b0 -
1*
1(
b101100 &
b101100 ,
0%
#1150
b1 .
1%
#1200
1'
0%
#1250
b0 .
1%
#1300
0'
0(
0%
#1350
1%
#1400
b101100 0
b1 "
0%
#1450
1%
#1500
0*
1(
0%
#1550
b10 .
1%
#1600
1'
0%
#1650
b0 .
1%
#1700
0'
0(
0%
#1750
1%
#1800
b1 2
b0 "
b1 $
0%
#1850
1%
#1900
b1 )
b1 -
1*
1(
0%
#1950
b1 .
1%
#2000
1'
0%
#2050
b0 .
1%
#2100
0'
0(
0%
#2150
1%
#2200
b1 "
b0 $
0%
#2250
1%
#2300
0*
1(
0%
#2350
b10 .
1%
#2400
1'
0%
#2450
b0 .
b1 !
b1 /
1%
#2500
0'
0(
b1 $
0%
#2550
b0 !
b0 /
1%
#2600
b10 2
b0 "
b10 $
0%
#2650
1%
#2700
b10 )
b10 -
1*
1(
0%
#2750
b1 .
1%
#2800
1'
0%
#2850
b0 .
1%
#2900
0'
0(
0%
#2950
1%
#3000
b1 "
b0 $
0%
#3050
1%
#3100
0*
1(
0%
#3150
b10 .
1%
#3200
1'
0%
#3250
b0 .
b10 !
b10 /
1%
#3300
0'
0(
b10 $
0%
#3350
b0 !
b0 /
1%
#3400
b11 2
b0 "
b11 $
0%
#3450
1%
#3500
b11 )
b11 -
1*
1(
0%
#3550
b1 .
1%
#3600
1'
0%
#3650
b0 .
1%
#3700
0'
0(
0%
#3750
1%
#3800
b1 "
b0 $
0%
#3850
1%
#3900
0*
1(
0%
#3950
b10 .
1%
#4000
1'
0%
#4050
b0 .
b11 !
b11 /
1%
#4100
0'
0(
b11 $
0%
#4150
b0 !
b0 /
1%
#4200
b100 2
b0 "
b100 $
0%
#4250
1%
#4300
b100 )
b100 -
1*
1(
0%
#4350
b1 .
1%
#4400
1'
0%
#4450
b0 .
1%
#4500
0'
0(
0%
#4550
1%
#4600
b1 "
b0 $
0%
#4650
1%
#4700
0*
1(
0%
#4750
b10 .
1%
#4800
1'
0%
#4850
b0 .
b100 !
b100 /
1%
#4900
0'
0(
b100 $
0%
#4950
b0 !
b0 /
1%
#5000
b101 2
b0 "
b101 $
0%
#5050
1%
#5100
b101 )
b101 -
1*
1(
0%
#5150
b1 .
1%
#5200
1'
0%
#5250
b0 .
1%
#5300
0'
0(
0%
#5350
1%
#5400
b1 "
b0 $
0%
#5450
1%
#5500
0*
1(
0%
#5550
b10 .
1%
#5600
1'
0%
#5650
b0 .
b101 !
b101 /
1%
#5700
0'
0(
b101 $
0%
#5750
b0 !
b0 /
1%
#5800
b110 2
b0 "
b110 $
0%
#5850
1%
#5900
b110 )
b110 -
1*
1(
0%
#5950
b1 .
1%
#6000
1'
0%
#6050
b0 .
1%
#6100
0'
0(
0%
#6150
1%
#6200
b1 "
b0 $
0%
#6250
1%
#6300
0*
1(
0%
#6350
b10 .
1%
#6400
1'
0%
#6450
b0 .
b110 !
b110 /
1%
#6500
0'
0(
b110 $
0%
#6550
b0 !
b0 /
1%
#6600
b111 2
b0 "
b111 $
0%
#6650
1%
#6700
b111 )
b111 -
1*
1(
0%
#6750
b1 .
1%
#6800
1'
0%
#6850
b0 .
1%
#6900
0'
0(
0%
#6950
1%
#7000
b1 "
b0 $
0%
#7050
1%
#7100
0*
1(
0%
#7150
b10 .
1%
#7200
1'
0%
#7250
b0 .
b111 !
b111 /
1%
#7300
0'
0(
b111 $
0%
#7350
b0 !
b0 /
1%
#7400
b1000 2
b0 "
b1000 $
0%
#7450
1%
#7500
b1000 )
b1000 -
1*
1(
0%
#7550
b1 .
1%
#7600
1'
0%
#7650
b0 .
1%
#7700
0'
0(
0%
#7750
1%
#7800
b1 "
b0 $
0%
#7850
1%
#7900
0*
1(
0%
#7950
b10 .
1%
#8000
1'
0%
#8050
b0 .
b1000 !
b1000 /
1%
#8100
0'
0(
b1000 $
0%
#8150
b0 !
b0 /
1%
#8200
b1001 2
b0 "
b1001 $
0%
#8250
1%
#8300
b1001 )
b1001 -
1*
1(
0%
#8350
b1 .
1%
#8400
1'
0%
#8450
b0 .
1%
#8500
0'
0(
0%
#8550
1%
#8600
b1 "
b0 $
0%
#8650
1%
#8700
0*
1(
0%
#8750
b10 .
1%
#8800
1'
0%
#8850
b0 .
b1001 !
b1001 /
1%
#8900
0'
0(
b1001 $
0%
#8950
b0 !
b0 /
1%
#9000
b1010 2
b0 "
b1010 $
0%
#9050
1%
#9100
b1010 )
b1010 -
1*
1(
0%
#9150
b1 .
1%
#9200
1'
0%
#9250
b0 .
1%
#9300
0'
0(
0%
#9350
1%
#9400
b1 "
b0 $
0%
#9450
1%
#9500
0*
1(
0%
#9550
b10 .
1%
#9600
1'
0%
#9650
b0 .
b1010 !
b1010 /
1%
#9700
0'
0(
b1010 $
0%
#9750
b0 !
b0 /
1%
#9800
b1011 2
b0 "
b1011 $
0%
#9850
1%
#9900
b1011 )
b1011 -
1*
1(
0%
#9950
b1 .
1%
#10000
1'
0%
#10050
b0 .
1%
#10100
0'
0(
0%
#10150
1%
#10200
b1 "
b0 $
0%
#10250
1%
#10300
0*
1(
0%
#10350
b10 .
1%
#10400
1'
0%
#10450
b0 .
b1011 !
b1011 /
1%
#10500
0'
0(
b1011 $
0%
#10550
b0 !
b0 /
1%
#10600
b1100 2
b0 "
b1100 $
0%
#10650
1%
#10700
b1100 )
b1100 -
1*
1(
0%
#10750
b1 .
1%
#10800
1'
0%
#10850
b0 .
1%
#10900
0'
0(
0%
#10950
1%
#11000
b1 "
b0 $
0%
#11050
1%
#11100
0*
1(
0%
#11150
b10 .
1%
#11200
1'
0%
#11250
b0 .
b1100 !
b1100 /
1%
#11300
0'
0(
b1100 $
0%
#11350
b0 !
b0 /
1%
#11400
b1101 2
b0 "
b1101 $
0%
#11450
1%
#11500
b1101 )
b1101 -
1*
1(
0%
#11550
b1 .
1%
#11600
1'
0%
#11650
b0 .
1%
#11700
0'
0(
0%
#11750
1%
#11800
b1 "
b0 $
0%
#11850
1%
#11900
0*
1(
0%
#11950
b10 .
1%
#12000
1'
0%
#12050
b0 .
b1101 !
b1101 /
1%
#12100
0'
0(
b1101 $
0%
#12150
b0 !
b0 /
1%
#12200
b1110 2
b0 "
b1110 $
0%
#12250
1%
#12300
b1110 )
b1110 -
1*
1(
0%
#12350
b1 .
1%
#12400
1'
0%
#12450
b0 .
1%
#12500
0'
0(
0%
#12550
1%
#12600
b1 "
b0 $
0%
#12650
1%
#12700
0*
1(
0%
#12750
b10 .
1%
#12800
1'
0%
#12850
b0 .
b1110 !
b1110 /
1%
#12900
0'
0(
b1110 $
0%
#12950
b0 !
b0 /
1%
#13000
b1111 2
b0 "
b1111 $
0%
#13050
1%
#13100
b1111 )
b1111 -
1*
1(
0%
#13150
b1 .
1%
#13200
1'
0%
#13250
b0 .
1%
#13300
0'
0(
0%
#13350
1%
#13400
b1 "
b0 $
0%
#13450
1%
#13500
0*
1(
0%
#13550
b10 .
1%
#13600
1'
0%
#13650
b0 .
b1111 !
b1111 /
1%
#13700
0'
0(
b1111 $
0%
#13750
b0 !
b0 /
1%
#13800
b10000 2
b0 "
b10000 $
0%
#13850
1%
#13900
b10000 )
b10000 -
1*
1(
0%
#13950
b1 .
1%
#14000
1'
0%
#14050
b0 .
1%
#14100
0'
0(
0%
#14150
1%
#14200
b1 "
b0 $
0%
#14250
1%
#14300
0*
1(
0%
#14350
b10 .
1%
#14400
1'
0%
#14450
b0 .
b10000 !
b10000 /
1%
#14500
0'
0(
b10000 $
0%
#14550
b0 !
b0 /
1%
#14600
b10001 2
b0 "
b10001 $
0%
#14650
1%
#14700
b10001 )
b10001 -
1*
1(
0%
#14750
b1 .
1%
#14800
1'
0%
#14850
b0 .
1%
#14900
0'
0(
0%
#14950
1%
#15000
b1 "
b0 $
0%
#15050
1%
#15100
0*
1(
0%
#15150
b10 .
1%
#15200
1'
0%
#15250
b0 .
b10001 !
b10001 /
1%
#15300
0'
0(
b10001 $
0%
#15350
b0 !
b0 /
1%
#15400
b10010 2
b0 "
b10010 $
0%
#15450
1%
#15500
b10010 )
b10010 -
1*
1(
0%
#15550
b1 .
1%
#15600
1'
0%
#15650
b0 .
1%
#15700
0'
0(
0%
#15750
1%
#15800
b1 "
b0 $
0%
#15850
1%
#15900
0*
1(
0%
#15950
b10 .
1%
#16000
1'
0%
#16050
b0 .
b10010 !
b10010 /
1%
#16100
0'
0(
b10010 $
0%
#16150
b0 !
b0 /
1%
#16200
b10011 2
b0 "
b10011 $
0%
#16250
1%
#16300
b10011 )
b10011 -
1*
1(
0%
#16350
b1 .
1%
#16400
1'
0%
#16450
b0 .
1%
#16500
0'
0(
0%
#16550
1%
#16600
b1 "
b0 $
0%
#16650
1%
#16700
0*
1(
0%
#16750
b10 .
1%
#16800
1'
0%
#16850
b0 .
b10011 !
b10011 /
1%
#16900
0'
0(
b10011 $
0%
#16950
b0 !
b0 /
1%
#17000
b10100 2
b0 "
b10100 $
0%
#17050
1%
#17100
b10100 )
b10100 -
1*
1(
0%
#17150
b1 .
1%
#17200
1'
0%
#17250
b0 .
1%
#17300
0'
0(
0%
#17350
1%
#17400
b1 "
b0 $
0%
#17450
1%
#17500
0*
1(
0%
#17550
b10 .
1%
#17600
1'
0%
#17650
b0 .
b10100 !
b10100 /
1%
#17700
0'
0(
b10100 $
0%
#17750
b0 !
b0 /
1%
#17800
b10101 2
b0 "
b10101 $
0%
#17850
1%
#17900
b10101 )
b10101 -
1*
1(
0%
#17950
b1 .
1%
#18000
1'
0%
#18050
b0 .
1%
#18100
0'
0(
0%
#18150
1%
#18200
b1 "
b0 $
0%
#18250
1%
#18300
0*
1(
0%
#18350
b10 .
1%
#18400
1'
0%
#18450
b0 .
b10101 !
b10101 /
1%
#18500
0'
0(
b10101 $
0%
#18550
b0 !
b0 /
1%
#18600
b10110 2
b0 "
b10110 $
0%
#18650
1%
#18700
b10110 )
b10110 -
1*
1(
0%
#18750
b1 .
1%
#18800
1'
0%
#18850
b0 .
1%
#18900
0'
0(
0%
#18950
1%
#19000
b1 "
b0 $
0%
#19050
1%
#19100
0*
1(
0%
#19150
b10 .
1%
#19200
1'
0%
#19250
b0 .
b10110 !
b10110 /
1%
#19300
0'
0(
b10110 $
0%
#19350
b0 !
b0 /
1%
#19400
b10111 2
b0 "
b10111 $
0%
#19450
1%
#19500
b10111 )
b10111 -
1*
1(
0%
#19550
b1 .
1%
#19600
1'
0%
#19650
b0 .
1%
#19700
0'
0(
0%
#19750
1%
#19800
b1 "
b0 $
0%
#19850
1%
#19900
0*
1(
0%
#19950
b10 .
1%
#20000
1'
0%
#20050
b0 .
b10111 !
b10111 /
1%
#20100
0'
0(
b10111 $
0%
#20150
b0 !
b0 /
1%
#20200
b11000 2
b0 "
b11000 $
0%
#20250
1%
#20300
b11000 )
b11000 -
1*
1(
0%
#20350
b1 .
1%
#20400
1'
0%
#20450
b0 .
1%
#20500
0'
0(
0%
#20550
1%
#20600
b1 "
b0 $
0%
#20650
1%
#20700
0*
1(
0%
#20750
b10 .
1%
#20800
1'
0%
#20850
b0 .
b11000 !
b11000 /
1%
#20900
0'
0(
b11000 $
0%
#20950
b0 !
b0 /
1%
#21000
b11001 2
b0 "
b11001 $
0%
#21050
1%
#21100
b11001 )
b11001 -
1*
1(
0%
#21150
b1 .
1%
#21200
1'
0%
#21250
b0 .
1%
#21300
0'
0(
0%
#21350
1%
#21400
b1 "
b0 $
0%
#21450
1%
#21500
0*
1(
0%
#21550
b10 .
1%
#21600
1'
0%
#21650
b0 .
b11001 !
b11001 /
1%
#21700
0'
0(
b11001 $
0%
#21750
b0 !
b0 /
1%
#21800
b11010 2
b0 "
b11010 $
0%
#21850
1%
#21900
b11010 )
b11010 -
1*
1(
0%
#21950
b1 .
1%
#22000
1'
0%
#22050
b0 .
1%
#22100
0'
0(
0%
#22150
1%
#22200
b1 "
b0 $
0%
#22250
1%
#22300
0*
1(
0%
#22350
b10 .
1%
#22400
1'
0%
#22450
b0 .
b11010 !
b11010 /
1%
#22500
0'
0(
b11010 $
0%
#22550
b0 !
b0 /
1%
#22600
b11011 2
b0 "
b11011 $
0%
#22650
1%
#22700
b11011 )
b11011 -
1*
1(
0%
#22750
b1 .
1%
#22800
1'
0%
#22850
b0 .
1%
#22900
0'
0(
0%
#22950
1%
#23000
b1 "
b0 $
0%
#23050
1%
#23100
0*
1(
0%
#23150
b10 .
1%
#23200
1'
0%
#23250
b0 .
b11011 !
b11011 /
1%
#23300
0'
0(
b11011 $
0%
#23350
b0 !
b0 /
1%
#23400
b11100 2
b0 "
b11100 $
0%
#23450
1%
#23500
b11100 )
b11100 -
1*
1(
0%
#23550
b1 .
1%
#23600
1'
0%
#23650
b0 .
1%
#23700
0'
0(
0%
#23750
1%
#23800
b1 "
b0 $
0%
#23850
1%
#23900
0*
1(
0%
#23950
b10 .
1%
#24000
1'
0%
#24050
b0 .
b11100 !
b11100 /
1%
#24100
0'
0(
b11100 $
0%
#24150
b0 !
b0 /
1%
#24200
b11101 2
b0 "
b11101 $
0%
#24250
1%
#24300
b11101 )
b11101 -
1*
1(
0%
#24350
b1 .
1%
#24400
1'
0%
#24450
b0 .
1%
#24500
0'
0(
0%
#24550
1%
#24600
b1 "
b0 $
0%
#24650
1%
#24700
0*
1(
0%
#24750
b10 .
1%
#24800
1'
0%
#24850
b0 .
b11101 !
b11101 /
1%
#24900
0'
0(
b11101 $
0%
#24950
b0 !
b0 /
1%
#25000
b11110 2
b0 "
b11110 $
0%
#25050
1%
#25100
b11110 )
b11110 -
1*
1(
0%
#25150
b1 .
1%
#25200
1'
0%
#25250
b0 .
1%
#25300
0'
0(
0%
#25350
1%
#25400
b1 "
b0 $
0%
#25450
1%
#25500
0*
1(
0%
#25550
b10 .
1%
#25600
1'
0%
#25650
b0 .
b11110 !
b11110 /
1%
#25700
0'
0(
b11110 $
0%
#25750
b0 !
b0 /
1%
#25800
b11111 2
b0 "
b11111 $
0%
#25850
1%
#25900
b11111 )
b11111 -
1*
1(
0%
#25950
b1 .
1%
#26000
1'
0%
#26050
b0 .
1%
#26100
0'
0(
0%
#26150
1%
#26200
b1 "
b0 $
0%
#26250
1%
#26300
0*
1(
0%
#26350
b10 .
1%
#26400
1'
0%
#26450
b0 .
b11111 !
b11111 /
1%
#26500
0'
0(
b11111 $
0%
#26550
b0 !
b0 /
1%
#26600
b100000 2
b0 "
b100000 $
0%
#26650
1%
#26700
b100000 )
b100000 -
1*
1(
0%
#26750
b1 .
1%
#26800
1'
0%
#26850
b0 .
1%
#26900
0'
0(
0%
#26950
1%
#27000
b1 "
b0 $
0%
#27050
1%
#27100
0*
1(
0%
#27150
b10 .
1%
#27200
1'
0%
#27250
b0 .
b100000 !
b100000 /
1%
#27300
0'
0(
b100000 $
0%
#27350
b0 !
b0 /
1%
#27400
b100001 2
b0 "
b100001 $
0%
#27450
1%
#27500
b100001 )
b100001 -
1*
1(
0%
#27550
b1 .
1%
#27600
1'
0%
#27650
b0 .
1%
#27700
0'
0(
0%
#27750
1%
#27800
b1 "
b0 $
0%
#27850
1%
#27900
0*
1(
0%
#27950
b10 .
1%
#28000
1'
0%
#28050
b0 .
b100001 !
b100001 /
1%
#28100
0'
0(
b100001 $
0%
#28150
b0 !
b0 /
1%
#28200
b100010 2
b0 "
b100010 $
0%
#28250
1%
#28300
b100010 )
b100010 -
1*
1(
0%
#28350
b1 .
1%
#28400
1'
0%
#28450
b0 .
1%
#28500
0'
0(
0%
#28550
1%
#28600
b1 "
b0 $
0%
#28650
1%
#28700
0*
1(
0%
#28750
b10 .
1%
#28800
1'
0%
#28850
b0 .
b100010 !
b100010 /
1%
#28900
0'
0(
b100010 $
0%
#28950
b0 !
b0 /
1%
#29000
b100011 2
b0 "
b100011 $
0%
#29050
1%
#29100
b100011 )
b100011 -
1*
1(
0%
#29150
b1 .
1%
#29200
1'
0%
#29250
b0 .
1%
#29300
0'
0(
0%
#29350
1%
#29400
b1 "
b0 $
0%
#29450
1%
#29500
0*
1(
0%
#29550
b10 .
1%
#29600
1'
0%
#29650
b0 .
b100011 !
b100011 /
1%
#29700
0'
0(
b100011 $
0%
#29750
b0 !
b0 /
1%
#29800
b100100 2
b0 "
b100100 $
0%
#29850
1%
#29900
b100100 )
b100100 -
1*
1(
0%
#29950
b1 .
1%
#30000
1'
0%
#30050
b0 .
1%
#30100
0'
0(
0%
#30150
1%
#30200
b1 "
b0 $
0%
#30250
1%
#30300
0*
1(
0%
#30350
b10 .
1%
#30400
1'
0%
#30450
b0 .
b100100 !
b100100 /
1%
#30500
0'
0(
b100100 $
0%
#30550
b0 !
b0 /
1%
#30600
b100101 2
b0 "
b100101 $
0%
#30650
1%
#30700
b100101 )
b100101 -
1*
1(
0%
#30750
b1 .
1%
#30800
1'
0%
#30850
b0 .
1%
#30900
0'
0(
0%
#30950
1%
#31000
b1 "
b0 $
0%
#31050
1%
#31100
0*
1(
0%
#31150
b10 .
1%
#31200
1'
0%
#31250
b0 .
b100101 !
b100101 /
1%
#31300
0'
0(
b100101 $
0%
#31350
b0 !
b0 /
1%
#31400
b100110 2
b0 "
b100110 $
0%
#31450
1%
#31500
b100110 )
b100110 -
1*
1(
0%
#31550
b1 .
1%
#31600
1'
0%
#31650
b0 .
1%
#31700
0'
0(
0%
#31750
1%
#31800
b1 "
b0 $
0%
#31850
1%
#31900
0*
1(
0%
#31950
b10 .
1%
#32000
1'
0%
#32050
b0 .
b100110 !
b100110 /
1%
#32100
0'
0(
b100110 $
0%
#32150
b0 !
b0 /
1%
#32200
b100111 2
b0 "
b100111 $
0%
#32250
1%
#32300
b100111 )
b100111 -
1*
1(
0%
#32350
b1 .
1%
#32400
1'
0%
#32450
b0 .
1%
#32500
0'
0(
0%
#32550
1%
#32600
b1 "
b0 $
0%
#32650
1%
#32700
0*
1(
0%
#32750
b10 .
1%
#32800
1'
0%
#32850
b0 .
b100111 !
b100111 /
1%
#32900
0'
0(
b100111 $
0%
#32950
b0 !
b0 /
1%
#33000
b101000 2
b0 "
b101000 $
0%
#33050
1%
#33100
b101000 )
b101000 -
1*
1(
0%
#33150
b1 .
1%
#33200
1'
0%
#33250
b0 .
1%
#33300
0'
0(
0%
#33350
1%
#33400
b1 "
b0 $
0%
#33450
1%
#33500
0*
1(
0%
#33550
b10 .
1%
#33600
1'
0%
#33650
b0 .
b101000 !
b101000 /
1%
#33700
0'
0(
b101000 $
0%
#33750
b0 !
b0 /
1%
#33800
b101001 2
b0 "
b101001 $
0%
#33850
1%
#33900
b101001 )
b101001 -
1*
1(
0%
#33950
b1 .
1%
#34000
1'
0%
#34050
b0 .
1%
#34100
0'
0(
0%
#34150
1%
#34200
b1 "
b0 $
0%
#34250
1%
#34300
0*
1(
0%
#34350
b10 .
1%
#34400
1'
0%
#34450
b0 .
b101001 !
b101001 /
1%
#34500
0'
0(
b101001 $
0%
#34550
b0 !
b0 /
1%
#34600
b101010 2
b0 "
b101010 $
0%
#34650
1%
#34700
b101010 )
b101010 -
1*
1(
0%
#34750
b1 .
1%
#34800
1'
0%
#34850
b0 .
1%
#34900
0'
0(
0%
#34950
1%
#35000
b1 "
b0 $
0%
#35050
1%
#35100
0*
1(
0%
#35150
b10 .
1%
#35200
1'
0%
#35250
b0 .
b101010 !
b101010 /
1%
#35300
0'
0(
b101010 $
0%
#35350
b0 !
b0 /
1%
#35400
b101011 2
b0 "
b101011 $
0%
#35450
1%
#35500
b101011 )
b101011 -
1*
1(
0%
#35550
b1 .
1%
#35600
1'
0%
#35650
b0 .
1%
#35700
0'
0(
0%
#35750
1%
#35800
b1 "
b0 $
0%
#35850
1%
#35900
0*
1(
0%
#35950
b10 .
1%
#36000
1'
0%
#36050
b0 .
b101011 !
b101011 /
1%
#36100
0'
0(
b101011 $
0%
#36150
b0 !
b0 /
1%
#36200
b101100 2
b0 "
b101100 $
0%
#36250
1%
#36300
b101100 )
b101100 -
1*
1(
0%
#36350
b1 .
1%
#36400
1'
0%
#36450
b0 .
1%
#36500
0'
0(
0%
#36550
1%
#36600
b1 "
b0 $
0%
#36650
1%
#36700
0*
1(
0%
#36750
b10 .
1%
#36800
1'
0%
#36850
b0 .
b101100 !
b101100 /
1%
#36900
0'
0(
b101100 $
0%
#36950
b0 !
b0 /
1%
#37000
b101101 2
b0 "
b101101 $
0%
#37050
1%
#37100
b101101 )
b101101 -
1*
1(
0%
#37150
b1 .
1%
#37200
1'
0%
#37250
b0 .
1%
#37300
0'
0(
0%
#37350
1%
#37400
b1 "
b0 $
0%
#37450
1%
#37500
0*
1(
0%
#37550
b10 .
1%
#37600
1'
0%
#37650
b0 .
b101101 !
b101101 /
1%
#37700
0'
0(
b101101 $
0%
#37750
b0 !
b0 /
1%
#37800
b101110 2
b0 "
b101110 $
0%
#37850
1%
#37900
b101110 )
b101110 -
1*
1(
0%
#37950
b1 .
1%
#38000
1'
0%
#38050
b0 .
1%
#38100
0'
0(
0%
#38150
1%
#38200
b1 "
b0 $
0%
#38250
1%
#38300
0*
1(
0%
#38350
b10 .
1%
#38400
1'
0%
#38450
b0 .
b101110 !
b101110 /
1%
#38500
0'
0(
b101110 $
0%
#38550
b0 !
b0 /
1%
#38600
b101111 2
b0 "
b101111 $
0%
#38650
1%
#38700
b101111 )
b101111 -
1*
1(
0%
#38750
b1 .
1%
#38800
1'
0%
#38850
b0 .
1%
#38900
0'
0(
0%
#38950
1%
#39000
b1 "
b0 $
0%
#39050
1%
#39100
0*
1(
0%
#39150
b10 .
1%
#39200
1'
0%
#39250
b0 .
b101111 !
b101111 /
1%
#39300
0'
0(
b101111 $
0%
#39350
b0 !
b0 /
1%
#39400
b110000 2
b0 "
b110000 $
0%
#39450
1%
#39500
b110000 )
b110000 -
1*
1(
0%
#39550
b1 .
1%
#39600
1'
0%
#39650
b0 .
1%
#39700
0'
0(
0%
#39750
1%
#39800
b1 "
b0 $
0%
#39850
1%
#39900
0*
1(
0%
#39950
b10 .
1%
#40000
1'
0%
#40050
b0 .
b110000 !
b110000 /
1%
#40100
0'
0(
b110000 $
0%
#40150
b0 !
b0 /
1%
#40200
b110001 2
b0 "
b110001 $
0%
#40250
1%
#40300
b110001 )
b110001 -
1*
1(
0%
#40350
b1 .
1%
#40400
1'
0%
#40450
b0 .
1%
#40500
0'
0(
0%
#40550
1%
#40600
b1 "
b0 $
0%
#40650
1%
#40700
0*
1(
0%
#40750
b10 .
1%
#40800
1'
0%
#40850
b0 .
b110001 !
b110001 /
1%
#40900
0'
0(
b110001 $
0%
#40950
b0 !
b0 /
1%
#41000
b110010 2
b0 "
b110010 $
0%
#41050
1%
#41100
b110010 )
b110010 -
1*
1(
0%
#41150
b1 .
1%
#41200
1'
0%
#41250
b0 .
1%
#41300
0'
0(
0%
#41350
1%
#41400
b1 "
b0 $
0%
#41450
1%
#41500
0*
1(
0%
#41550
b10 .
1%
#41600
1'
0%
#41650
b0 .
b110010 !
b110010 /
1%
#41700
0'
0(
b110010 $
0%
#41750
b0 !
b0 /
1%
#41800
b110011 2
b0 "
b110011 $
0%
#41850
1%
#41900
b110011 )
b110011 -
1*
1(
0%
#41950
b1 .
1%
#42000
1'
0%
#42050
b0 .
1%
#42100
0'
0(
0%
#42150
1%
#42200
b1 "
b0 $
0%
#42250
1%
#42300
0*
1(
0%
#42350
b10 .
1%
#42400
1'
0%
#42450
b0 .
b110011 !
b110011 /
1%
#42500
0'
0(
b110011 $
0%
#42550
b0 !
b0 /
1%
#42600
b110100 2
b0 "
b110100 $
0%
#42650
1%
#42700
b110100 )
b110100 -
1*
1(
0%
#42750
b1 .
1%
#42800
1'
0%
#42850
b0 .
1%
#42900
0'
0(
0%
#42950
1%
#43000
b1 "
b0 $
0%
#43050
1%
#43100
0*
1(
0%
#43150
b10 .
1%
#43200
1'
0%
#43250
b0 .
b110100 !
b110100 /
1%
#43300
0'
0(
b110100 $
0%
#43350
b0 !
b0 /
1%
#43400
b110101 2
b0 "
b110101 $
0%
#43450
1%
#43500
b110101 )
b110101 -
1*
1(
0%
#43550
b1 .
1%
#43600
1'
0%
#43650
b0 .
1%
#43700
0'
0(
0%
#43750
1%
#43800
b1 "
b0 $
0%
#43850
1%
#43900
0*
1(
0%
#43950
b10 .
1%
#44000
1'
0%
#44050
b0 .
b110101 !
b110101 /
1%
#44100
0'
0(
b110101 $
0%
#44150
b0 !
b0 /
1%
#44200
b110110 2
b0 "
b110110 $
0%
#44250
1%
#44300
b110110 )
b110110 -
1*
1(
0%
#44350
b1 .
1%
#44400
1'
0%
#44450
b0 .
1%
#44500
0'
0(
0%
#44550
1%
#44600
b1 "
b0 $
0%
#44650
1%
#44700
0*
1(
0%
#44750
b10 .
1%
#44800
1'
0%
#44850
b0 .
b110110 !
b110110 /
1%
#44900
0'
0(
b110110 $
0%
#44950
b0 !
b0 /
1%
#45000
b110111 2
b0 "
b110111 $
0%
#45050
1%
#45100
b110111 )
b110111 -
1*
1(
0%
#45150
b1 .
1%
#45200
1'
0%
#45250
b0 .
1%
#45300
0'
0(
0%
#45350
1%
#45400
b1 "
b0 $
0%
#45450
1%
#45500
0*
1(
0%
#45550
b10 .
1%
#45600
1'
0%
#45650
b0 .
b110111 !
b110111 /
1%
#45700
0'
0(
b110111 $
0%
#45750
b0 !
b0 /
1%
#45800
b111000 2
b0 "
b111000 $
0%
#45850
1%
#45900
b111000 )
b111000 -
1*
1(
0%
#45950
b1 .
1%
#46000
1'
0%
#46050
b0 .
1%
#46100
0'
0(
0%
#46150
1%
#46200
b1 "
b0 $
0%
#46250
1%
#46300
0*
1(
0%
#46350
b10 .
1%
#46400
1'
0%
#46450
b0 .
b111000 !
b111000 /
1%
#46500
0'
0(
b111000 $
0%
#46550
b0 !
b0 /
1%
#46600
b111001 2
b0 "
b111001 $
0%
#46650
1%
#46700
b111001 )
b111001 -
1*
1(
0%
#46750
b1 .
1%
#46800
1'
0%
#46850
b0 .
1%
#46900
0'
0(
0%
#46950
1%
#47000
b1 "
b0 $
0%
#47050
1%
#47100
0*
1(
0%
#47150
b10 .
1%
#47200
1'
0%
#47250
b0 .
b111001 !
b111001 /
1%
#47300
0'
0(
b111001 $
0%
#47350
b0 !
b0 /
1%
#47400
b111010 2
b0 "
b111010 $
0%
#47450
1%
#47500
b111010 )
b111010 -
1*
1(
0%
#47550
b1 .
1%
#47600
1'
0%
#47650
b0 .
1%
#47700
0'
0(
0%
#47750
1%
#47800
b1 "
b0 $
0%
#47850
1%
#47900
0*
1(
0%
#47950
b10 .
1%
#48000
1'
0%
#48050
b0 .
b111010 !
b111010 /
1%
#48100
0'
0(
b111010 $
0%
#48150
b0 !
b0 /
1%
#48200
b111011 2
b0 "
b111011 $
0%
#48250
1%
#48300
b111011 )
b111011 -
1*
1(
0%
#48350
b1 .
1%
#48400
1'
0%
#48450
b0 .
1%
#48500
0'
0(
0%
#48550
1%
#48600
b1 "
b0 $
0%
#48650
1%
#48700
0*
1(
0%
#48750
b10 .
1%
#48800
1'
0%
#48850
b0 .
b111011 !
b111011 /
1%
#48900
0'
0(
b111011 $
0%
#48950
b0 !
b0 /
1%
#49000
b111100 2
b0 "
b111100 $
0%
#49050
1%
#49100
b111100 )
b111100 -
1*
1(
0%
#49150
b1 .
1%
#49200
1'
0%
#49250
b0 .
1%
#49300
0'
0(
0%
#49350
1%
#49400
b1 "
b0 $
0%
#49450
1%
#49500
0*
1(
0%
#49550
b10 .
1%
#49600
1'
0%
#49650
b0 .
b111100 !
b111100 /
1%
#49700
0'
0(
b111100 $
0%
#49750
b0 !
b0 /
1%
#49800
b111101 2
b0 "
b111101 $
0%
#49850
1%
#49900
b111101 )
b111101 -
1*
1(
0%
#49950
b1 .
1%
#50000
1'
0%
#50050
b0 .
1%
#50100
0'
0(
0%
#50150
1%
#50200
b1 "
b0 $
0%
#50250
1%
#50300
0*
1(
0%
#50350
b10 .
1%
#50400
1'
0%
#50450
b0 .
b111101 !
b111101 /
1%
#50500
0'
0(
b111101 $
0%
#50550
b0 !
b0 /
1%
#50600
b111110 2
b0 "
b111110 $
0%
#50650
1%
