apb_qemu/sim/apb.vcd
$date
	Wed Dec 23 19:45:58 2020
$end
$version
	Icarus Verilog
$end
$timescale
	100ps
$end
$scope module tb_top $end
$var wire 32 ! prdata [31:0] $end
$var reg 8 " _op [7:0] $end
$var reg 8 # _paddr [7:0] $end
$var reg 8 $ _pdata [7:0] $end
$var reg 1 % clk $end
$var reg 8 & paddr [7:0] $end
$var reg 1 ' penable $end
$var reg 1 ( psel $end
$var reg 32 ) pwdata [31:0] $end
$var reg 1 * pwrite $end
$var reg 1 + rst_n $end
$scope module u_apb_slave $end
$var wire 1 % clk $end
$var wire 8 , paddr [7:0] $end
$var wire 1 ' penable $end
$var wire 1 ( psel $end
$var wire 32 - pwdata [31:0] $end
$var wire 1 * pwrite $end
$var wire 1 + rst_n $end
$var reg 2 . apb_st [1:0] $end
$var reg 32 / prdata [31:0] $end
$var reg 32 0 reg1 [31:0] $end
$var reg 32 1 reg10 [31:0] $end
$var reg 1 2 reg10_f1 $end
$var reg 1 3 reg10_f2 $end
$var reg 30 4 reg10_f3 [29:0] $end
$var reg 2 5 reg1_f1 [1:0] $end
$var reg 1 6 reg1_f2 $end
$var reg 1 7 reg1_f3 $end
$var reg 28 8 reg1_f4 [27:0] $end
$var reg 32 9 reg2 [31:0] $end
$var reg 4 : reg2_f1 [3:0] $end
$var reg 1 ; reg2_f2 $end
$var reg 27 < reg2_f3 [26:0] $end
$var reg 32 = reg3 [31:0] $end
$var reg 2 > reg3_f1 [1:0] $end
$var reg 15 ? reg3_f2 [14:0] $end
$var reg 15 @ reg3_f3 [14:0] $end
$var reg 32 A reg4 [31:0] $end
$var reg 16 B reg4_f1 [15:0] $end
$var reg 16 C reg4_f2 [15:0] $end
$var reg 32 D reg5 [31:0] $end
$var reg 32 E reg5_f1 [31:0] $end
$var reg 32 F reg6 [31:0] $end
$var reg 1 G reg6_f1 $end
$var reg 3 H reg6_f2 [2:0] $end
$var reg 7 I reg6_f3 [6:0] $end
$var reg 13 J reg6_f4 [12:0] $end
$var reg 6 K reg6_f5 [5:0] $end
$var reg 32 L reg7 [31:0] $end
$var reg 1 M reg7_f1 $end
$var reg 1 N reg7_f2 $end
$var reg 30 O reg7_f3 [29:0] $end
$var reg 32 P reg8 [31:0] $end
$var reg 8 Q reg8_f1 [7:0] $end
$var reg 24 R reg8_f2 [23:0] $end
$var reg 32 S reg9 [31:0] $end
$var reg 10 T reg9_f1 [9:0] $end
$var reg 10 U reg9_f2 [9:0] $end
$var reg 12 V reg9_f3 [11:0] $end
$upscope $end
$scope begin bfm_apb $end
$scope begin idle_transation $end
$upscope $end
$scope begin valid_transation $end
$upscope $end
$upscope $end
$scope task read_apb $end
$var reg 8 W addr [7:0] $end
$upscope $end
$scope task write_apb $end
$var reg 8 X addr [7:0] $end
$var reg 8 Y data [7:0] $end
$upscope $end
$upscope $end
$enddefinitions $end
#0
$dumpvars
bx Y
bx X
bx W
b0 V
b0 U
b0 T
bx S
b0 R
b0 Q
bx P
b1 O
1N
0M
bx L
b100100 K
b110000000000 J
b1010011 I
b10 H
0G
bx F
b0 E
bx D
b1000010 C
b1 B
bx A
b0 @
b0 ?
b1 >
bx =
b1 <
0;
b0 :
bx 9
b0 8
17
16
b0 5
b100000 4
13
12
bx 1
bx 0
b0 /
b0 .
bx -
bx ,
0+
x*
bx )
0(
0'
bx &
0%
bx $
bx #
bx "
b0 !
$end
#50
1%
#100
0%
#150
1%
#200
0%
#250
1%
#300
0%
#350
1%
#400
0%
#450
1%
#500
0%
1+
#550
1%
#600
0%
#650
1%
#700
0%
#750
1%
#800
0%
#850
1%
#900
0%
#950
1%
#1000
b1 Y
b100 X
b0 "
b1 $
b100 #
0%
#1050
1%
#1100
b1 )
b1 -
1*
1(
b100 &
b100 ,
0%
#1150
b1 .
1%
#1200
1'
0%
#1250
b0 .
b1 9
1%
#1300
0'
0(
0%
#1350
1%
#1400
b100 W
b1 "
b0 $
0%
#1450
1%
#1500
0*
1(
0%
#1550
b10 .
1%
#1600
1'
0%
#1650
b0 .
b1 !
b1 /
1%
#1700
0'
0(
b1 $
0%
#1750
b0 !
b0 /
1%
#1800
b0 "
0%
#1850
1%
#1900
1*
1(
0%
#1950
b1 .
1%
#2000
1'
0%
#2050
b0 .
1%
#2100
0'
0(
0%
#2150
1%
#2200
b1 "
b0 $
0%
#2250
1%
#2300
0*
1(
0%
#2350
b10 .
1%
#2400
1'
0%
#2450
b0 .
b1 !
b1 /
1%
#2500
0'
0(
b1 $
0%
#2550
b0 !
b0 /
1%
#2600
b0 "
0%
#2650
1%
#2700
1*
1(
0%
#2750
b1 .
1%
#2800
1'
0%
#2850
b0 .
1%
#2900
0'
0(
0%
#2950
1%
#3000
b0 W
b11 "
b0 $
b0 #
0%
#3050
1%
#3100
0*
1(
b0 &
b0 ,
0%
#3150
b10 .
1%
#3200
1'
0%
#3250
b0 .
b110000000000000000000000000000 !
b110000000000000000000000000000 /
1%
#3300
0'
0(
0%
#3350
b0 !
b0 /
1%
